{
    "name": "Digitom.Nodes",
    "rootNamespace": "DigitomNodes",
    "references": [
        "GUID:2ad3604a3e2e24e4584fb53178f88108"
    ],
    "includePlatforms": [],
    "excludePlatforms": [],
    "allowUnsafeCode": false,
    "overrideReferences": false,
    "precompiledReferences": [
        "Newtonsoft.Json.dll"
    ],
    "autoReferenced": true,
    "defineConstraints": [],
    "versionDefines": [],
    "noEngineReferences": false
}